Assignment 3: K Means Clustering
…
#Have a look at the K4 dataframe. Lets change the names of the variables to make it more convenient with the names() command.

Now we need to visualize the clusters we have created. To do so we want to play with the structure of our data. What would be most useful would be if we could visualize average motivation by cluster, by week. To do this we will need to convert our data from wide to long format. Remember your old friends tidyr and dplyr!

First lets use tidyr to convert from wide to long format.

K5 <- K4%>%
  gather("week", value = "motivation", 1:5)%>%
  group_by(cluster)

K5

## # A tibble: 115 x 3
## # Groups:   cluster [2]
##    cluster week  motivation
##      <int> <chr>      <dbl>
##  1       1 1          1.04 
##  2       2 1         -0.671
##  3       1 1          1.04 
##  4       1 1          1.04 
##  5       1 1          1.04 
##  6       1 1          1.04 
##  7       2 1         -0.671
##  8       2 1         -0.671
##  9       2 1         -0.671
## 10       2 1         -0.671
## # ... with 105 more rows
…
