Assignment-3.utf8
…
class_df

## # A tibble: 48 x 9
##    `First Name` `Last Name` `Class 1` `Class 2` `Class 3` `Class 4` `Class 5`
##    <chr>        <chr>       <chr>     <chr>     <chr>     <chr>     <chr>    
##  1 "{\"ImportI "{\"Import "{\"Impo "{\"Impo "{\"Impo "{\"Impo "{\"Impo
##  2 "Zhouda"     "Wu"        "HUDK 40 "HUDK 40 "MSTU 40 "MSTU 50 "MSTU 41
##  3 "Jiacong"    "Zhu"       "HUDK 40 "HUDM 51 "HUDM 50 "HUDM 41  <NA>    
##  4 "wenqi"      "gao"       "HUDK 40 "HUDM 50 "HUDM 51 "HUDM 41  <NA>    
##  5 "Yucheng"    "Pan"       "HUDK 40 "HUDK 40 "HUDK 50  <NA>      <NA>    
##  6 "Berj"       "Akian"     "HUDK 40 "HUDK 40  <NA>      <NA>      <NA>    
##  7 "Sara"       "Vasquez"   "HUDK405  <NA>      <NA>      <NA>      <NA>    
##  8 "Abdul Mali "Muftau"    "Hudk 40 "Edpe 40  <NA>      <NA>      <NA>    
##  9 "Jiaao `"    "Qi"        "HUDK 40 "HUDM 41 "HUDM 50 "HUDM 51  <NA>    
## 10 "Yixiong"    "Xu"        "HUDK 40 "HUDK 40 "HUDM 41 "HUDK 50  <NA>    
## #  with 38 more rows, and 2 more variables: `Class 6` <chr>, `Which of these
## #   topics is most interesting to you?` <chr>

class_df <- class_df[-1,]
class_df

## # A tibble: 47 x 9
##    `First Name` `Last Name` `Class 1` `Class 2` `Class 3` `Class 4` `Class 5`
##    <chr>        <chr>       <chr>     <chr>     <chr>     <chr>     <chr>    
##  1 Zhouda       Wu          HUDK 4050 HUDK 4031 MSTU 4000 MSTU 5003 MSTU 4133
##  2 Jiacong      Zhu         HUDK 4050 HUDM 5126 HUDM 5026 HUDM 4125 <NA>     
##  3 wenqi        gao         HUDK 4050 HUDM 5026 HUDM 5126 HUDM 4125 <NA>     
##  4 Yucheng      Pan         HUDK 4031 HUDK 4050 HUDK 5035 <NA>      <NA>     
##  5 Berj         Akian       HUDK 4050 HUDK 4029 <NA>      <NA>      <NA>     
##  6 Sara         Vasquez     HUDK4050  <NA>      <NA>      <NA>      <NA>     
##  7 Abdul Malik  Muftau      Hudk 4050 Edpe 4056 <NA>      <NA>      <NA>     
##  8 Jiaao `      Qi          HUDK 4050 HUDM 4125 HUDM 5026 HUDM 5126 <NA>     
##  9 Yixiong      Xu          HUDK 4031 HUDK 4050 HUDM 4122 HUDK 5037 <NA>     
## 10 yunzhao      wu          HUDK 4050 HUDK 4029 HUDK 4011 HUDK 4122 <NA>     
## #  with 37 more rows, and 2 more variables: `Class 6` <chr>, `Which of these
## #   topics is most interesting to you?` <chr>

Please create a person-network with the data set hudk4050-classes.csv. To create this network you will need to create a person-class matrix using the tidyr functions and then create a person-person matrix using t(). You will then need to plot a matrix rather than a to/from data frame using igraph.

library(tidyr)
names(class_df) = c("FirstName","LastName","Class1","Class2","Class3","Class4","Class5","Class6","Interest")
class_df$Name = paste(class_df$FirstName,class_df$LastName)
class_df

## # A tibble: 47 x 10
##    FirstName  LastName Class1  Class2 Class3 Class4 Class5 Class6 Interest Name 
##    <chr>      <chr>    <chr>   <chr>  <chr>  <chr>  <chr>  <chr>  <chr>    <chr>
##  1 Zhouda     Wu       HUDK 4 HUDK  MSTU  MSTU  MSTU  <NA>   Predict Zhou
##  2 Jiacong    Zhu      HUDK 4 HUDM  HUDM  HUDM  <NA>   <NA>   Visuali Jiac
##  3 wenqi      gao      HUDK 4 HUDM  HUDM  HUDM  <NA>   <NA>   Visuali wenq
##  4 Yucheng    Pan      HUDK 4 HUDK  HUDK  <NA>   <NA>   <NA>   Social  Yuch
##  5 Berj       Akian    HUDK 4 HUDK  <NA>   <NA>   <NA>   <NA>   Visuali Berj
##  6 Sara       Vasquez  HUDK40 <NA>   <NA>   <NA>   <NA>   <NA>   Social  Sara
##  7 Abdul Mal Muftau   Hudk 4 Edpe  <NA>   <NA>   <NA>   <NA>   Social  Abdu
##  8 Jiaao `    Qi       HUDK 4 HUDM  HUDM  HUDM  <NA>   <NA>   Facial  Jiaa
##  9 Yixiong    Xu       HUDK 4 HUDK  HUDM  HUDK  <NA>   <NA>   Visuali Yixi
## 10 yunzhao    wu       HUDK 4 HUDK  HUDK  HUDK  <NA>   <NA>   Predict yunz
## #  with 37 more rows
…
